^H:\NEUER ORDNER\MYO-SDK-WIN-0.9.0\SAMPLES\HELLO-MYO.CPP
/c /I..\INCLUDE /Zi /nologo /W3 /WX- /Od /Oy- /D WIN32 /D _DEBUG /D _CONSOLE /Gm /EHsc /RTC1 /MDd /GS /fp:precise /Zc:wchar_t /Zc:forScope /Zc:inline /Fo"DEBUG\\" /Fd"DEBUG\VC140.PDB" /Gd /TP /analyze- H:\NEUER ORDNER\MYO-SDK-WIN-0.9.0\SAMPLES\HELLO-MYO.CPP
^H:\NEUER ORDNER\MYO-SDK-WIN-0.9.0\SAMPLES\TEMPLATEMATCHER.CPP
/c /I..\INCLUDE /Zi /nologo /W3 /WX- /Od /Oy- /D WIN32 /D _DEBUG /D _CONSOLE /Gm /EHsc /RTC1 /MDd /GS /fp:precise /Zc:wchar_t /Zc:forScope /Zc:inline /Fo"DEBUG\\" /Fd"DEBUG\VC140.PDB" /Gd /TP /analyze- H:\NEUER ORDNER\MYO-SDK-WIN-0.9.0\SAMPLES\TEMPLATEMATCHER.CPP
^C:\DROPBOX\MA\PROJECT\SAMPLES\HELLO-MYO.CPP
/c /I..\INCLUDE /Zi /nologo /W3 /WX- /Od /Oy- /D WIN32 /D _DEBUG /D _CONSOLE /Gm /EHsc /RTC1 /MDd /GS /fp:precise /Zc:wchar_t /Zc:forScope /Zc:inline /Fo"DEBUG\\" /Fd"DEBUG\VC140.PDB" /Gd /TP /analyze- C:\DROPBOX\MA\PROJECT\SAMPLES\HELLO-MYO.CPP
^C:\DROPBOX\MA\PROJECT\SAMPLES\TEMPLATEMATCHER.CPP
/c /I..\INCLUDE /Zi /nologo /W3 /WX- /Od /Oy- /D WIN32 /D _DEBUG /D _CONSOLE /Gm /EHsc /RTC1 /MDd /GS /fp:precise /Zc:wchar_t /Zc:forScope /Zc:inline /Fo"DEBUG\\" /Fd"DEBUG\VC140.PDB" /Gd /TP /analyze- C:\DROPBOX\MA\PROJECT\SAMPLES\TEMPLATEMATCHER.CPP
