^C:\DROPBOX\MA\PROJECT\SAMPLES\HELLO-MYO.CPP|C:\DROPBOX\MA\PROJECT\SAMPLES\TEMPLATEMATCHER.CPP
C:\DROPBOX\MA\PROJECT\SAMPLES\DEBUG\VC140.PDB
C:\DROPBOX\MA\PROJECT\SAMPLES\DEBUG\VC140.IDB
C:\DROPBOX\MA\PROJECT\SAMPLES\DEBUG\HELLO-MYO.OBJ
^C:\DROPBOX\MA\PROJECT\SAMPLES\HELLO-MYO.CPP
C:\DROPBOX\MA\PROJECT\SAMPLES\DEBUG\VC140.PDB
C:\DROPBOX\MA\PROJECT\SAMPLES\DEBUG\VC140.IDB
C:\DROPBOX\MA\PROJECT\SAMPLES\DEBUG\HELLO-MYO.OBJ
^C:\DROPBOX\MA\PROJECT\SAMPLES\TEMPLATEMATCHER.CPP
C:\DROPBOX\MA\PROJECT\SAMPLES\DEBUG\VC140.PDB
